<?xml version="1.0" encoding="UTF-8"?>
<!-- Do not edit this file with editors other than draw.io -->
<!DOCTYPE svg PUBLIC "-//W3C//DTD SVG 1.1//EN" "http://www.w3.org/Graphics/SVG/1.1/DTD/svg11.dtd">
<svg xmlns="http://www.w3.org/2000/svg" xmlns:xlink="http://www.w3.org/1999/xlink" version="1.1" width="517px" height="572px" viewBox="-0.5 -0.5 517 572" content="&lt;mxfile host=&quot;app.diagrams.net&quot; modified=&quot;2023-07-13T11:48:44.062Z&quot; agent=&quot;Mozilla/5.0 (Windows NT 10.0; Win64; x64) AppleWebKit/537.36 (KHTML, like Gecko) Chrome/114.0.0.0 Safari/537.36&quot; etag=&quot;hEt1Aa-o5y_8KFKzVCjJ&quot; version=&quot;21.6.1&quot; type=&quot;device&quot;&gt;&#10;  &lt;diagram name=&quot;Page-1&quot; id=&quot;tfOasYSzxb79CIxhuDig&quot;&gt;&#10;    &lt;mxGraphModel dx=&quot;3745&quot; dy=&quot;-337&quot; grid=&quot;1&quot; gridSize=&quot;10&quot; guides=&quot;1&quot; tooltips=&quot;1&quot; connect=&quot;1&quot; arrows=&quot;1&quot; fold=&quot;1&quot; page=&quot;1&quot; pageScale=&quot;1&quot; pageWidth=&quot;850&quot; pageHeight=&quot;1100&quot; math=&quot;0&quot; shadow=&quot;0&quot;&gt;&#10;      &lt;root&gt;&#10;        &lt;mxCell id=&quot;0&quot; /&gt;&#10;        &lt;mxCell id=&quot;1&quot; parent=&quot;0&quot; /&gt;&#10;        &lt;mxCell id=&quot;DpvnqXEqxwF2HjWGMdVM-1&quot; value=&quot;Watchdog&quot; style=&quot;rounded=1;whiteSpace=wrap;html=1;&quot; vertex=&quot;1&quot; parent=&quot;1&quot;&gt;&#10;          &lt;mxGeometry x=&quot;-2375&quot; y=&quot;1170&quot; width=&quot;490&quot; height=&quot;40&quot; as=&quot;geometry&quot; /&gt;&#10;        &lt;/mxCell&gt;&#10;        &lt;mxCell id=&quot;DpvnqXEqxwF2HjWGMdVM-2&quot; value=&quot;ProFip UsrIod Main&quot; style=&quot;shape=umlLifeline;perimeter=lifelinePerimeter;whiteSpace=wrap;html=1;container=1;dropTarget=0;collapsible=0;recursiveResize=0;outlineConnect=0;portConstraint=eastwest;newEdgeStyle={&amp;quot;edgeStyle&amp;quot;:&amp;quot;elbowEdgeStyle&amp;quot;,&amp;quot;elbow&amp;quot;:&amp;quot;vertical&amp;quot;,&amp;quot;curved&amp;quot;:0,&amp;quot;rounded&amp;quot;:0};&quot; vertex=&quot;1&quot; parent=&quot;1&quot;&gt;&#10;          &lt;mxGeometry x=&quot;-2365&quot; y=&quot;1240&quot; width=&quot;100&quot; height=&quot;490&quot; as=&quot;geometry&quot; /&gt;&#10;        &lt;/mxCell&gt;&#10;        &lt;mxCell id=&quot;DpvnqXEqxwF2HjWGMdVM-3&quot; value=&quot;&quot; style=&quot;html=1;points=[];perimeter=orthogonalPerimeter;outlineConnect=0;targetShapes=umlLifeline;portConstraint=eastwest;newEdgeStyle={&amp;quot;edgeStyle&amp;quot;:&amp;quot;elbowEdgeStyle&amp;quot;,&amp;quot;elbow&amp;quot;:&amp;quot;vertical&amp;quot;,&amp;quot;curved&amp;quot;:0,&amp;quot;rounded&amp;quot;:0};fillColor=#dae8fc;strokeColor=#6c8ebf;&quot; vertex=&quot;1&quot; parent=&quot;DpvnqXEqxwF2HjWGMdVM-2&quot;&gt;&#10;          &lt;mxGeometry x=&quot;45&quot; y=&quot;90&quot; width=&quot;10&quot; height=&quot;400&quot; as=&quot;geometry&quot; /&gt;&#10;        &lt;/mxCell&gt;&#10;        &lt;mxCell id=&quot;DpvnqXEqxwF2HjWGMdVM-4&quot; value=&quot;ProFip&quot; style=&quot;shape=umlLifeline;perimeter=lifelinePerimeter;whiteSpace=wrap;html=1;container=1;dropTarget=0;collapsible=0;recursiveResize=0;outlineConnect=0;portConstraint=eastwest;newEdgeStyle={&amp;quot;edgeStyle&amp;quot;:&amp;quot;elbowEdgeStyle&amp;quot;,&amp;quot;elbow&amp;quot;:&amp;quot;vertical&amp;quot;,&amp;quot;curved&amp;quot;:0,&amp;quot;rounded&amp;quot;:0};&quot; vertex=&quot;1&quot; parent=&quot;1&quot;&gt;&#10;          &lt;mxGeometry x=&quot;-2095&quot; y=&quot;1240&quot; width=&quot;100&quot; height=&quot;490&quot; as=&quot;geometry&quot; /&gt;&#10;        &lt;/mxCell&gt;&#10;        &lt;mxCell id=&quot;DpvnqXEqxwF2HjWGMdVM-5&quot; value=&quot;&quot; style=&quot;html=1;points=[];perimeter=orthogonalPerimeter;outlineConnect=0;targetShapes=umlLifeline;portConstraint=eastwest;newEdgeStyle={&amp;quot;edgeStyle&amp;quot;:&amp;quot;elbowEdgeStyle&amp;quot;,&amp;quot;elbow&amp;quot;:&amp;quot;vertical&amp;quot;,&amp;quot;curved&amp;quot;:0,&amp;quot;rounded&amp;quot;:0};fillColor=#dae8fc;strokeColor=#6c8ebf;&quot; vertex=&quot;1&quot; parent=&quot;DpvnqXEqxwF2HjWGMdVM-4&quot;&gt;&#10;          &lt;mxGeometry x=&quot;45&quot; y=&quot;110&quot; width=&quot;10&quot; height=&quot;380&quot; as=&quot;geometry&quot; /&gt;&#10;        &lt;/mxCell&gt;&#10;        &lt;mxCell id=&quot;DpvnqXEqxwF2HjWGMdVM-7&quot; value=&quot;WDG&quot; style=&quot;shape=umlLifeline;perimeter=lifelinePerimeter;whiteSpace=wrap;html=1;container=1;dropTarget=0;collapsible=0;recursiveResize=0;outlineConnect=0;portConstraint=eastwest;newEdgeStyle={&amp;quot;edgeStyle&amp;quot;:&amp;quot;elbowEdgeStyle&amp;quot;,&amp;quot;elbow&amp;quot;:&amp;quot;vertical&amp;quot;,&amp;quot;curved&amp;quot;:0,&amp;quot;rounded&amp;quot;:0};&quot; vertex=&quot;1&quot; parent=&quot;1&quot;&gt;&#10;          &lt;mxGeometry x=&quot;-2255&quot; y=&quot;1240&quot; width=&quot;100&quot; height=&quot;490&quot; as=&quot;geometry&quot; /&gt;&#10;        &lt;/mxCell&gt;&#10;        &lt;mxCell id=&quot;DpvnqXEqxwF2HjWGMdVM-8&quot; value=&quot;&quot; style=&quot;html=1;points=[];perimeter=orthogonalPerimeter;outlineConnect=0;targetShapes=umlLifeline;portConstraint=eastwest;newEdgeStyle={&amp;quot;edgeStyle&amp;quot;:&amp;quot;elbowEdgeStyle&amp;quot;,&amp;quot;elbow&amp;quot;:&amp;quot;vertical&amp;quot;,&amp;quot;curved&amp;quot;:0,&amp;quot;rounded&amp;quot;:0};fillColor=#dae8fc;strokeColor=#6c8ebf;&quot; vertex=&quot;1&quot; parent=&quot;DpvnqXEqxwF2HjWGMdVM-7&quot;&gt;&#10;          &lt;mxGeometry x=&quot;45&quot; y=&quot;140&quot; width=&quot;10&quot; height=&quot;20&quot; as=&quot;geometry&quot; /&gt;&#10;        &lt;/mxCell&gt;&#10;        &lt;mxCell id=&quot;DpvnqXEqxwF2HjWGMdVM-9&quot; value=&quot;&quot; style=&quot;html=1;points=[];perimeter=orthogonalPerimeter;outlineConnect=0;targetShapes=umlLifeline;portConstraint=eastwest;newEdgeStyle={&amp;quot;edgeStyle&amp;quot;:&amp;quot;elbowEdgeStyle&amp;quot;,&amp;quot;elbow&amp;quot;:&amp;quot;vertical&amp;quot;,&amp;quot;curved&amp;quot;:0,&amp;quot;rounded&amp;quot;:0};fillColor=#dae8fc;strokeColor=#6c8ebf;&quot; vertex=&quot;1&quot; parent=&quot;DpvnqXEqxwF2HjWGMdVM-7&quot;&gt;&#10;          &lt;mxGeometry x=&quot;45&quot; y=&quot;180&quot; width=&quot;10&quot; height=&quot;310&quot; as=&quot;geometry&quot; /&gt;&#10;        &lt;/mxCell&gt;&#10;        &lt;mxCell id=&quot;DpvnqXEqxwF2HjWGMdVM-10&quot; value=&quot;Create Thread()&quot; style=&quot;html=1;align=left;spacingLeft=2;endArrow=block;rounded=0;edgeStyle=orthogonalEdgeStyle;curved=0;rounded=0;&quot; edge=&quot;1&quot; parent=&quot;DpvnqXEqxwF2HjWGMdVM-7&quot; source=&quot;DpvnqXEqxwF2HjWGMdVM-8&quot;&gt;&#10;          &lt;mxGeometry relative=&quot;1&quot; as=&quot;geometry&quot;&gt;&#10;            &lt;mxPoint x=&quot;64.99&quot; y=&quot;99.99&quot; as=&quot;sourcePoint&quot; /&gt;&#10;            &lt;Array as=&quot;points&quot;&gt;&#10;              &lt;mxPoint x=&quot;70&quot; y=&quot;150&quot; /&gt;&#10;              &lt;mxPoint x=&quot;70&quot; y=&quot;180&quot; /&gt;&#10;            &lt;/Array&gt;&#10;            &lt;mxPoint x=&quot;55&quot; y=&quot;179.99799999999982&quot; as=&quot;targetPoint&quot; /&gt;&#10;          &lt;/mxGeometry&gt;&#10;        &lt;/mxCell&gt;&#10;        &lt;mxCell id=&quot;DpvnqXEqxwF2HjWGMdVM-20&quot; value=&quot;check all modules&quot; style=&quot;html=1;align=left;spacingLeft=2;endArrow=block;rounded=0;edgeStyle=orthogonalEdgeStyle;curved=0;rounded=0;&quot; edge=&quot;1&quot; parent=&quot;DpvnqXEqxwF2HjWGMdVM-7&quot; source=&quot;DpvnqXEqxwF2HjWGMdVM-9&quot; target=&quot;DpvnqXEqxwF2HjWGMdVM-9&quot;&gt;&#10;          &lt;mxGeometry relative=&quot;1&quot; as=&quot;geometry&quot;&gt;&#10;            &lt;mxPoint x=&quot;65&quot; y=&quot;370&quot; as=&quot;sourcePoint&quot; /&gt;&#10;            &lt;Array as=&quot;points&quot;&gt;&#10;              &lt;mxPoint x=&quot;70&quot; y=&quot;370&quot; /&gt;&#10;              &lt;mxPoint x=&quot;70&quot; y=&quot;400&quot; /&gt;&#10;            &lt;/Array&gt;&#10;            &lt;mxPoint x=&quot;65&quot; y=&quot;399.9979999999998&quot; as=&quot;targetPoint&quot; /&gt;&#10;          &lt;/mxGeometry&gt;&#10;        &lt;/mxCell&gt;&#10;        &lt;mxCell id=&quot;DpvnqXEqxwF2HjWGMdVM-11&quot; value=&quot;Init()&quot; style=&quot;html=1;verticalAlign=bottom;endArrow=block;edgeStyle=elbowEdgeStyle;elbow=vertical;curved=0;rounded=0;&quot; edge=&quot;1&quot; parent=&quot;1&quot; source=&quot;DpvnqXEqxwF2HjWGMdVM-3&quot;&gt;&#10;          &lt;mxGeometry x=&quot;-0.6069&quot; width=&quot;80&quot; relative=&quot;1&quot; as=&quot;geometry&quot;&gt;&#10;            &lt;mxPoint x=&quot;-2305&quot; y=&quot;1380&quot; as=&quot;sourcePoint&quot; /&gt;&#10;            &lt;mxPoint x=&quot;-2210&quot; y=&quot;1380&quot; as=&quot;targetPoint&quot; /&gt;&#10;            &lt;mxPoint as=&quot;offset&quot; /&gt;&#10;          &lt;/mxGeometry&gt;&#10;        &lt;/mxCell&gt;&#10;        &lt;mxCell id=&quot;DpvnqXEqxwF2HjWGMdVM-12&quot; value=&quot;profip_wdg_start(ProFip)&quot; style=&quot;html=1;verticalAlign=bottom;endArrow=block;edgeStyle=elbowEdgeStyle;elbow=vertical;curved=0;rounded=0;&quot; edge=&quot;1&quot; parent=&quot;1&quot; source=&quot;DpvnqXEqxwF2HjWGMdVM-5&quot; target=&quot;DpvnqXEqxwF2HjWGMdVM-9&quot;&gt;&#10;          &lt;mxGeometry x=&quot;-0.0833&quot; width=&quot;80&quot; relative=&quot;1&quot; as=&quot;geometry&quot;&gt;&#10;            &lt;mxPoint x=&quot;-2125&quot; y=&quot;1500&quot; as=&quot;sourcePoint&quot; /&gt;&#10;            &lt;mxPoint x=&quot;-2085&quot; y=&quot;1500&quot; as=&quot;targetPoint&quot; /&gt;&#10;            &lt;mxPoint as=&quot;offset&quot; /&gt;&#10;            &lt;Array as=&quot;points&quot;&gt;&#10;              &lt;mxPoint x=&quot;-2115&quot; y=&quot;1460&quot; /&gt;&#10;            &lt;/Array&gt;&#10;          &lt;/mxGeometry&gt;&#10;        &lt;/mxCell&gt;&#10;        &lt;mxCell id=&quot;DpvnqXEqxwF2HjWGMdVM-13&quot; value=&quot;LibMasterFip&quot; style=&quot;shape=umlLifeline;perimeter=lifelinePerimeter;whiteSpace=wrap;html=1;container=1;dropTarget=0;collapsible=0;recursiveResize=0;outlineConnect=0;portConstraint=eastwest;newEdgeStyle={&amp;quot;edgeStyle&amp;quot;:&amp;quot;elbowEdgeStyle&amp;quot;,&amp;quot;elbow&amp;quot;:&amp;quot;vertical&amp;quot;,&amp;quot;curved&amp;quot;:0,&amp;quot;rounded&amp;quot;:0};&quot; vertex=&quot;1&quot; parent=&quot;1&quot;&gt;&#10;          &lt;mxGeometry x=&quot;-1985&quot; y=&quot;1240&quot; width=&quot;100&quot; height=&quot;500&quot; as=&quot;geometry&quot; /&gt;&#10;        &lt;/mxCell&gt;&#10;        &lt;mxCell id=&quot;DpvnqXEqxwF2HjWGMdVM-14&quot; value=&quot;&quot; style=&quot;html=1;points=[];perimeter=orthogonalPerimeter;outlineConnect=0;targetShapes=umlLifeline;portConstraint=eastwest;newEdgeStyle={&amp;quot;edgeStyle&amp;quot;:&amp;quot;elbowEdgeStyle&amp;quot;,&amp;quot;elbow&amp;quot;:&amp;quot;vertical&amp;quot;,&amp;quot;curved&amp;quot;:0,&amp;quot;rounded&amp;quot;:0};fillColor=#dae8fc;strokeColor=#6c8ebf;&quot; vertex=&quot;1&quot; parent=&quot;DpvnqXEqxwF2HjWGMdVM-13&quot;&gt;&#10;          &lt;mxGeometry x=&quot;45&quot; y=&quot;110&quot; width=&quot;10&quot; height=&quot;380&quot; as=&quot;geometry&quot; /&gt;&#10;        &lt;/mxCell&gt;&#10;        &lt;mxCell id=&quot;DpvnqXEqxwF2HjWGMdVM-15&quot; value=&quot;profip_wdg_trigger(ProFip)&quot; style=&quot;html=1;verticalAlign=bottom;endArrow=block;edgeStyle=elbowEdgeStyle;elbow=vertical;curved=0;rounded=0;&quot; edge=&quot;1&quot; parent=&quot;1&quot;&gt;&#10;          &lt;mxGeometry x=&quot;-0.0833&quot; width=&quot;80&quot; relative=&quot;1&quot; as=&quot;geometry&quot;&gt;&#10;            &lt;mxPoint x=&quot;-2050&quot; y=&quot;1530&quot; as=&quot;sourcePoint&quot; /&gt;&#10;            &lt;mxPoint x=&quot;-2200&quot; y=&quot;1530&quot; as=&quot;targetPoint&quot; /&gt;&#10;            &lt;mxPoint as=&quot;offset&quot; /&gt;&#10;            &lt;Array as=&quot;points&quot;&gt;&#10;              &lt;mxPoint x=&quot;-2125&quot; y=&quot;1530&quot; /&gt;&#10;              &lt;mxPoint x=&quot;-2120&quot; y=&quot;1540&quot; /&gt;&#10;            &lt;/Array&gt;&#10;          &lt;/mxGeometry&gt;&#10;        &lt;/mxCell&gt;&#10;        &lt;mxCell id=&quot;DpvnqXEqxwF2HjWGMdVM-16&quot; value=&quot;every n ms&quot; style=&quot;shape=umlFrame;whiteSpace=wrap;html=1;pointerEvents=0;width=70;height=30;&quot; vertex=&quot;1&quot; parent=&quot;1&quot;&gt;&#10;          &lt;mxGeometry x=&quot;-2400&quot; y=&quot;1500&quot; width=&quot;365&quot; height=&quot;40&quot; as=&quot;geometry&quot; /&gt;&#10;        &lt;/mxCell&gt;&#10;        &lt;mxCell id=&quot;DpvnqXEqxwF2HjWGMdVM-17&quot; value=&quot;profip_wdg_start(LibMasterFip)&quot; style=&quot;html=1;verticalAlign=bottom;endArrow=block;edgeStyle=elbowEdgeStyle;elbow=vertical;curved=0;rounded=0;&quot; edge=&quot;1&quot; parent=&quot;1&quot;&gt;&#10;          &lt;mxGeometry x=&quot;-0.0833&quot; width=&quot;80&quot; relative=&quot;1&quot; as=&quot;geometry&quot;&gt;&#10;            &lt;mxPoint x=&quot;-1940&quot; y=&quot;1490&quot; as=&quot;sourcePoint&quot; /&gt;&#10;            &lt;mxPoint x=&quot;-2200&quot; y=&quot;1490&quot; as=&quot;targetPoint&quot; /&gt;&#10;            &lt;mxPoint as=&quot;offset&quot; /&gt;&#10;            &lt;Array as=&quot;points&quot;&gt;&#10;              &lt;mxPoint x=&quot;-2010&quot; y=&quot;1490&quot; /&gt;&#10;            &lt;/Array&gt;&#10;          &lt;/mxGeometry&gt;&#10;        &lt;/mxCell&gt;&#10;        &lt;mxCell id=&quot;DpvnqXEqxwF2HjWGMdVM-18&quot; value=&quot;profip_wdg_trigger(LibMasterFip)&quot; style=&quot;html=1;verticalAlign=bottom;endArrow=block;edgeStyle=elbowEdgeStyle;elbow=vertical;curved=0;rounded=0;&quot; edge=&quot;1&quot; parent=&quot;1&quot; source=&quot;DpvnqXEqxwF2HjWGMdVM-14&quot; target=&quot;DpvnqXEqxwF2HjWGMdVM-9&quot;&gt;&#10;          &lt;mxGeometry x=&quot;-0.0833&quot; width=&quot;80&quot; relative=&quot;1&quot; as=&quot;geometry&quot;&gt;&#10;            &lt;mxPoint x=&quot;-1975&quot; y=&quot;1580&quot; as=&quot;sourcePoint&quot; /&gt;&#10;            &lt;mxPoint x=&quot;-2195&quot; y=&quot;1580&quot; as=&quot;targetPoint&quot; /&gt;&#10;            &lt;mxPoint as=&quot;offset&quot; /&gt;&#10;            &lt;Array as=&quot;points&quot;&gt;&#10;              &lt;mxPoint x=&quot;-2085&quot; y=&quot;1580&quot; /&gt;&#10;              &lt;mxPoint x=&quot;-1995&quot; y=&quot;1570&quot; /&gt;&#10;              &lt;mxPoint x=&quot;-2120&quot; y=&quot;1580&quot; /&gt;&#10;              &lt;mxPoint x=&quot;-2115&quot; y=&quot;1590&quot; /&gt;&#10;            &lt;/Array&gt;&#10;          &lt;/mxGeometry&gt;&#10;        &lt;/mxCell&gt;&#10;        &lt;mxCell id=&quot;DpvnqXEqxwF2HjWGMdVM-19&quot; value=&quot;every n ms&quot; style=&quot;shape=umlFrame;whiteSpace=wrap;html=1;pointerEvents=0;width=70;height=30;&quot; vertex=&quot;1&quot; parent=&quot;1&quot;&gt;&#10;          &lt;mxGeometry x=&quot;-2400&quot; y=&quot;1550&quot; width=&quot;475&quot; height=&quot;40&quot; as=&quot;geometry&quot; /&gt;&#10;        &lt;/mxCell&gt;&#10;        &lt;mxCell id=&quot;DpvnqXEqxwF2HjWGMdVM-21&quot; value=&quot;every 3 ms&quot; style=&quot;shape=umlFrame;whiteSpace=wrap;html=1;pointerEvents=0;width=70;height=30;&quot; vertex=&quot;1&quot; parent=&quot;1&quot;&gt;&#10;          &lt;mxGeometry x=&quot;-2400&quot; y=&quot;1600&quot; width=&quot;475&quot; height=&quot;50&quot; as=&quot;geometry&quot; /&gt;&#10;        &lt;/mxCell&gt;&#10;        &lt;mxCell id=&quot;DpvnqXEqxwF2HjWGMdVM-22&quot; value=&quot;&amp;lt;font size=&amp;quot;1&amp;quot;&amp;gt;if none of the modules have expired, trigger the hardware watchdog&amp;lt;/font&amp;gt;&quot; style=&quot;rounded=1;whiteSpace=wrap;html=1;&quot; vertex=&quot;1&quot; parent=&quot;1&quot;&gt;&#10;          &lt;mxGeometry x=&quot;-2165&quot; y=&quot;1660&quot; width=&quot;101&quot; height=&quot;60&quot; as=&quot;geometry&quot; /&gt;&#10;        &lt;/mxCell&gt;&#10;        &lt;mxCell id=&quot;DpvnqXEqxwF2HjWGMdVM-23&quot; value=&quot;&quot; style=&quot;endArrow=none;html=1;strokeWidth=2;rounded=0;entryX=0;entryY=0;entryDx=0;entryDy=0;&quot; edge=&quot;1&quot; parent=&quot;1&quot; target=&quot;DpvnqXEqxwF2HjWGMdVM-22&quot;&gt;&#10;          &lt;mxGeometry width=&quot;50&quot; height=&quot;50&quot; relative=&quot;1&quot; as=&quot;geometry&quot;&gt;&#10;            &lt;mxPoint x=&quot;-2185&quot; y=&quot;1630&quot; as=&quot;sourcePoint&quot; /&gt;&#10;            &lt;mxPoint x=&quot;-2076&quot; y=&quot;1740&quot; as=&quot;targetPoint&quot; /&gt;&#10;          &lt;/mxGeometry&gt;&#10;        &lt;/mxCell&gt;&#10;      &lt;/root&gt;&#10;    &lt;/mxGraphModel&gt;&#10;  &lt;/diagram&gt;&#10;&lt;/mxfile&gt;&#10;"><defs/><g><rect x="25" y="0" width="490" height="40" rx="6" ry="6" fill="rgb(255, 255, 255)" stroke="rgb(0, 0, 0)" pointer-events="all"/><g transform="translate(-0.5 -0.5)"><switch><foreignObject pointer-events="none" width="100%" height="100%" requiredFeatures="http://www.w3.org/TR/SVG11/feature#Extensibility" style="overflow: visible; text-align: left;"><div xmlns="http://www.w3.org/1999/xhtml" style="display: flex; align-items: unsafe center; justify-content: unsafe center; width: 488px; height: 1px; padding-top: 20px; margin-left: 26px;"><div data-drawio-colors="color: rgb(0, 0, 0); " style="box-sizing: border-box; font-size: 0px; text-align: center;"><div style="display: inline-block; font-size: 12px; font-family: Helvetica; color: rgb(0, 0, 0); line-height: 1.2; pointer-events: all; white-space: normal; overflow-wrap: normal;">Watchdog</div></div></div></foreignObject><text x="270" y="24" fill="rgb(0, 0, 0)" font-family="Helvetica" font-size="12px" text-anchor="middle">Watchdog</text></switch></g><rect x="35" y="70" width="100" height="40" fill="rgb(255, 255, 255)" stroke="rgb(0, 0, 0)" pointer-events="all"/><path d="M 85 110 L 85 560" fill="none" stroke="rgb(0, 0, 0)" stroke-miterlimit="10" stroke-dasharray="3 3" pointer-events="all"/><g transform="translate(-0.5 -0.5)"><switch><foreignObject pointer-events="none" width="100%" height="100%" requiredFeatures="http://www.w3.org/TR/SVG11/feature#Extensibility" style="overflow: visible; text-align: left;"><div xmlns="http://www.w3.org/1999/xhtml" style="display: flex; align-items: unsafe center; justify-content: unsafe center; width: 98px; height: 1px; padding-top: 90px; margin-left: 36px;"><div data-drawio-colors="color: rgb(0, 0, 0); " style="box-sizing: border-box; font-size: 0px; text-align: center;"><div style="display: inline-block; font-size: 12px; font-family: Helvetica; color: rgb(0, 0, 0); line-height: 1.2; pointer-events: all; white-space: normal; overflow-wrap: normal;">ProFip UsrIod Main</div></div></div></foreignObject><text x="85" y="94" fill="rgb(0, 0, 0)" font-family="Helvetica" font-size="12px" text-anchor="middle">ProFip UsrIod Ma...</text></switch></g><rect x="80" y="160" width="10" height="400" fill="#dae8fc" stroke="#6c8ebf" pointer-events="all"/><rect x="305" y="70" width="100" height="40" fill="rgb(255, 255, 255)" stroke="rgb(0, 0, 0)" pointer-events="all"/><path d="M 355 110 L 355 560" fill="none" stroke="rgb(0, 0, 0)" stroke-miterlimit="10" stroke-dasharray="3 3" pointer-events="all"/><g transform="translate(-0.5 -0.5)"><switch><foreignObject pointer-events="none" width="100%" height="100%" requiredFeatures="http://www.w3.org/TR/SVG11/feature#Extensibility" style="overflow: visible; text-align: left;"><div xmlns="http://www.w3.org/1999/xhtml" style="display: flex; align-items: unsafe center; justify-content: unsafe center; width: 98px; height: 1px; padding-top: 90px; margin-left: 306px;"><div data-drawio-colors="color: rgb(0, 0, 0); " style="box-sizing: border-box; font-size: 0px; text-align: center;"><div style="display: inline-block; font-size: 12px; font-family: Helvetica; color: rgb(0, 0, 0); line-height: 1.2; pointer-events: all; white-space: normal; overflow-wrap: normal;">ProFip</div></div></div></foreignObject><text x="355" y="94" fill="rgb(0, 0, 0)" font-family="Helvetica" font-size="12px" text-anchor="middle">ProFip</text></switch></g><rect x="350" y="180" width="10" height="380" fill="#dae8fc" stroke="#6c8ebf" pointer-events="all"/><rect x="145" y="70" width="100" height="40" fill="rgb(255, 255, 255)" stroke="rgb(0, 0, 0)" pointer-events="all"/><path d="M 195 110 L 195 560" fill="none" stroke="rgb(0, 0, 0)" stroke-miterlimit="10" stroke-dasharray="3 3" pointer-events="all"/><g transform="translate(-0.5 -0.5)"><switch><foreignObject pointer-events="none" width="100%" height="100%" requiredFeatures="http://www.w3.org/TR/SVG11/feature#Extensibility" style="overflow: visible; text-align: left;"><div xmlns="http://www.w3.org/1999/xhtml" style="display: flex; align-items: unsafe center; justify-content: unsafe center; width: 98px; height: 1px; padding-top: 90px; margin-left: 146px;"><div data-drawio-colors="color: rgb(0, 0, 0); " style="box-sizing: border-box; font-size: 0px; text-align: center;"><div style="display: inline-block; font-size: 12px; font-family: Helvetica; color: rgb(0, 0, 0); line-height: 1.2; pointer-events: all; white-space: normal; overflow-wrap: normal;">WDG</div></div></div></foreignObject><text x="195" y="94" fill="rgb(0, 0, 0)" font-family="Helvetica" font-size="12px" text-anchor="middle">WDG</text></switch></g><rect x="190" y="210" width="10" height="20" fill="#dae8fc" stroke="#6c8ebf" pointer-events="all"/><rect x="190" y="250" width="10" height="310" fill="#dae8fc" stroke="#6c8ebf" pointer-events="all"/><path d="M 200 220 L 215 220 L 215 250 L 208.12 250" fill="none" stroke="rgb(0, 0, 0)" stroke-miterlimit="10" pointer-events="stroke"/><path d="M 201.12 250 L 208.12 246.5 L 208.12 253.5 Z" fill="rgb(0, 0, 0)" stroke="rgb(0, 0, 0)" stroke-miterlimit="10" pointer-events="all"/><g transform="translate(-0.5 -0.5)"><switch><foreignObject pointer-events="none" width="100%" height="100%" requiredFeatures="http://www.w3.org/TR/SVG11/feature#Extensibility" style="overflow: visible; text-align: left;"><div xmlns="http://www.w3.org/1999/xhtml" style="display: flex; align-items: unsafe center; justify-content: unsafe flex-start; width: 1px; height: 1px; padding-top: 235px; margin-left: 219px;"><div data-drawio-colors="color: rgb(0, 0, 0); background-color: rgb(255, 255, 255); " style="box-sizing: border-box; font-size: 0px; text-align: left;"><div style="display: inline-block; font-size: 11px; font-family: Helvetica; color: rgb(0, 0, 0); line-height: 1.2; pointer-events: all; background-color: rgb(255, 255, 255); white-space: nowrap;">Create Thread()</div></div></div></foreignObject><text x="219" y="238" fill="rgb(0, 0, 0)" font-family="Helvetica" font-size="11px">Create Thread()</text></switch></g><path d="M 200 440 L 215 440 L 215 470 L 208.12 470" fill="none" stroke="rgb(0, 0, 0)" stroke-miterlimit="10" pointer-events="stroke"/><path d="M 201.12 470 L 208.12 466.5 L 208.12 473.5 Z" fill="rgb(0, 0, 0)" stroke="rgb(0, 0, 0)" stroke-miterlimit="10" pointer-events="all"/><g transform="translate(-0.5 -0.5)"><switch><foreignObject pointer-events="none" width="100%" height="100%" requiredFeatures="http://www.w3.org/TR/SVG11/feature#Extensibility" style="overflow: visible; text-align: left;"><div xmlns="http://www.w3.org/1999/xhtml" style="display: flex; align-items: unsafe center; justify-content: unsafe flex-start; width: 1px; height: 1px; padding-top: 455px; margin-left: 219px;"><div data-drawio-colors="color: rgb(0, 0, 0); background-color: rgb(255, 255, 255); " style="box-sizing: border-box; font-size: 0px; text-align: left;"><div style="display: inline-block; font-size: 11px; font-family: Helvetica; color: rgb(0, 0, 0); line-height: 1.2; pointer-events: all; background-color: rgb(255, 255, 255); white-space: nowrap;">check all modules</div></div></div></foreignObject><text x="219" y="458" fill="rgb(0, 0, 0)" font-family="Helvetica" font-size="11px">check all modules</text></switch></g><path d="M 90 210.33 L 181.88 210.33" fill="none" stroke="rgb(0, 0, 0)" stroke-miterlimit="10" pointer-events="stroke"/><path d="M 188.88 210.33 L 181.88 213.83 L 181.88 206.83 Z" fill="rgb(0, 0, 0)" stroke="rgb(0, 0, 0)" stroke-miterlimit="10" pointer-events="all"/><g transform="translate(-0.5 -0.5)"><switch><foreignObject pointer-events="none" width="100%" height="100%" requiredFeatures="http://www.w3.org/TR/SVG11/feature#Extensibility" style="overflow: visible; text-align: left;"><div xmlns="http://www.w3.org/1999/xhtml" style="display: flex; align-items: unsafe flex-end; justify-content: unsafe center; width: 1px; height: 1px; padding-top: 207px; margin-left: 110px;"><div data-drawio-colors="color: rgb(0, 0, 0); background-color: rgb(255, 255, 255); " style="box-sizing: border-box; font-size: 0px; text-align: center;"><div style="display: inline-block; font-size: 11px; font-family: Helvetica; color: rgb(0, 0, 0); line-height: 1.2; pointer-events: all; background-color: rgb(255, 255, 255); white-space: nowrap;">Init()</div></div></div></foreignObject><text x="110" y="207" fill="rgb(0, 0, 0)" font-family="Helvetica" font-size="11px" text-anchor="middle">Init()</text></switch></g><path d="M 350 290 L 285 290 L 208.12 290" fill="none" stroke="rgb(0, 0, 0)" stroke-miterlimit="10" pointer-events="stroke"/><path d="M 201.12 290 L 208.12 286.5 L 208.12 293.5 Z" fill="rgb(0, 0, 0)" stroke="rgb(0, 0, 0)" stroke-miterlimit="10" pointer-events="all"/><g transform="translate(-0.5 -0.5)"><switch><foreignObject pointer-events="none" width="100%" height="100%" requiredFeatures="http://www.w3.org/TR/SVG11/feature#Extensibility" style="overflow: visible; text-align: left;"><div xmlns="http://www.w3.org/1999/xhtml" style="display: flex; align-items: unsafe flex-end; justify-content: unsafe center; width: 1px; height: 1px; padding-top: 287px; margin-left: 281px;"><div data-drawio-colors="color: rgb(0, 0, 0); background-color: rgb(255, 255, 255); " style="box-sizing: border-box; font-size: 0px; text-align: center;"><div style="display: inline-block; font-size: 11px; font-family: Helvetica; color: rgb(0, 0, 0); line-height: 1.2; pointer-events: all; background-color: rgb(255, 255, 255); white-space: nowrap;">profip_wdg_start(ProFip)</div></div></div></foreignObject><text x="281" y="287" fill="rgb(0, 0, 0)" font-family="Helvetica" font-size="11px" text-anchor="middle">profip_wdg_star...</text></switch></g><rect x="415" y="70" width="100" height="40" fill="rgb(255, 255, 255)" stroke="rgb(0, 0, 0)" pointer-events="all"/><path d="M 465 110 L 465 570" fill="none" stroke="rgb(0, 0, 0)" stroke-miterlimit="10" stroke-dasharray="3 3" pointer-events="all"/><g transform="translate(-0.5 -0.5)"><switch><foreignObject pointer-events="none" width="100%" height="100%" requiredFeatures="http://www.w3.org/TR/SVG11/feature#Extensibility" style="overflow: visible; text-align: left;"><div xmlns="http://www.w3.org/1999/xhtml" style="display: flex; align-items: unsafe center; justify-content: unsafe center; width: 98px; height: 1px; padding-top: 90px; margin-left: 416px;"><div data-drawio-colors="color: rgb(0, 0, 0); " style="box-sizing: border-box; font-size: 0px; text-align: center;"><div style="display: inline-block; font-size: 12px; font-family: Helvetica; color: rgb(0, 0, 0); line-height: 1.2; pointer-events: all; white-space: normal; overflow-wrap: normal;">LibMasterFip</div></div></div></foreignObject><text x="465" y="94" fill="rgb(0, 0, 0)" font-family="Helvetica" font-size="12px" text-anchor="middle">LibMasterFip</text></switch></g><rect x="460" y="180" width="10" height="380" fill="#dae8fc" stroke="#6c8ebf" pointer-events="all"/><path d="M 350 360 L 275 360 L 208.12 360" fill="none" stroke="rgb(0, 0, 0)" stroke-miterlimit="10" pointer-events="stroke"/><path d="M 201.12 360 L 208.12 356.5 L 208.12 363.5 Z" fill="rgb(0, 0, 0)" stroke="rgb(0, 0, 0)" stroke-miterlimit="10" pointer-events="all"/><g transform="translate(-0.5 -0.5)"><switch><foreignObject pointer-events="none" width="100%" height="100%" requiredFeatures="http://www.w3.org/TR/SVG11/feature#Extensibility" style="overflow: visible; text-align: left;"><div xmlns="http://www.w3.org/1999/xhtml" style="display: flex; align-items: unsafe flex-end; justify-content: unsafe center; width: 1px; height: 1px; padding-top: 357px; margin-left: 281px;"><div data-drawio-colors="color: rgb(0, 0, 0); background-color: rgb(255, 255, 255); " style="box-sizing: border-box; font-size: 0px; text-align: center;"><div style="display: inline-block; font-size: 11px; font-family: Helvetica; color: rgb(0, 0, 0); line-height: 1.2; pointer-events: all; background-color: rgb(255, 255, 255); white-space: nowrap;">profip_wdg_trigger(ProFip)</div></div></div></foreignObject><text x="281" y="357" fill="rgb(0, 0, 0)" font-family="Helvetica" font-size="11px" text-anchor="middle">profip_wdg_trig...</text></switch></g><path d="M 0 330 L 70 330 L 70 345 L 60 360 L 0 360 Z" fill="rgb(255, 255, 255)" stroke="rgb(0, 0, 0)" stroke-miterlimit="10" pointer-events="all"/><path d="M 70 330 L 365 330 L 365 370 L 0 370 L 0 360" fill="none" stroke="rgb(0, 0, 0)" stroke-miterlimit="10" pointer-events="none"/><g transform="translate(-0.5 -0.5)"><switch><foreignObject pointer-events="none" width="100%" height="100%" requiredFeatures="http://www.w3.org/TR/SVG11/feature#Extensibility" style="overflow: visible; text-align: left;"><div xmlns="http://www.w3.org/1999/xhtml" style="display: flex; align-items: unsafe center; justify-content: unsafe center; width: 68px; height: 1px; padding-top: 345px; margin-left: 1px;"><div data-drawio-colors="color: rgb(0, 0, 0); " style="box-sizing: border-box; font-size: 0px; text-align: center;"><div style="display: inline-block; font-size: 12px; font-family: Helvetica; color: rgb(0, 0, 0); line-height: 1.2; pointer-events: none; white-space: normal; overflow-wrap: normal;">every n ms</div></div></div></foreignObject><text x="35" y="349" fill="rgb(0, 0, 0)" font-family="Helvetica" font-size="12px" text-anchor="middle">every n ms</text></switch></g><path d="M 460 320 L 390 320 L 208.12 320" fill="none" stroke="rgb(0, 0, 0)" stroke-miterlimit="10" pointer-events="none"/><path d="M 201.12 320 L 208.12 316.5 L 208.12 323.5 Z" fill="rgb(0, 0, 0)" stroke="rgb(0, 0, 0)" stroke-miterlimit="10" pointer-events="none"/><g transform="translate(-0.5 -0.5)"><switch><foreignObject pointer-events="none" width="100%" height="100%" requiredFeatures="http://www.w3.org/TR/SVG11/feature#Extensibility" style="overflow: visible; text-align: left;"><div xmlns="http://www.w3.org/1999/xhtml" style="display: flex; align-items: unsafe flex-end; justify-content: unsafe center; width: 1px; height: 1px; padding-top: 317px; margin-left: 341px;"><div data-drawio-colors="color: rgb(0, 0, 0); background-color: rgb(255, 255, 255); " style="box-sizing: border-box; font-size: 0px; text-align: center;"><div style="display: inline-block; font-size: 11px; font-family: Helvetica; color: rgb(0, 0, 0); line-height: 1.2; pointer-events: none; background-color: rgb(255, 255, 255); white-space: nowrap;">profip_wdg_start(LibMasterFip)</div></div></div></foreignObject><text x="341" y="317" fill="rgb(0, 0, 0)" font-family="Helvetica" font-size="11px" text-anchor="middle">profip_wdg_star...</text></switch></g><path d="M 460 410 L 315 410 L 208.12 410" fill="none" stroke="rgb(0, 0, 0)" stroke-miterlimit="10" pointer-events="none"/><path d="M 201.12 410 L 208.12 406.5 L 208.12 413.5 Z" fill="rgb(0, 0, 0)" stroke="rgb(0, 0, 0)" stroke-miterlimit="10" pointer-events="none"/><g transform="translate(-0.5 -0.5)"><switch><foreignObject pointer-events="none" width="100%" height="100%" requiredFeatures="http://www.w3.org/TR/SVG11/feature#Extensibility" style="overflow: visible; text-align: left;"><div xmlns="http://www.w3.org/1999/xhtml" style="display: flex; align-items: unsafe flex-end; justify-content: unsafe center; width: 1px; height: 1px; padding-top: 407px; margin-left: 341px;"><div data-drawio-colors="color: rgb(0, 0, 0); background-color: rgb(255, 255, 255); " style="box-sizing: border-box; font-size: 0px; text-align: center;"><div style="display: inline-block; font-size: 11px; font-family: Helvetica; color: rgb(0, 0, 0); line-height: 1.2; pointer-events: none; background-color: rgb(255, 255, 255); white-space: nowrap;">profip_wdg_trigger(LibMasterFip)</div></div></div></foreignObject><text x="341" y="407" fill="rgb(0, 0, 0)" font-family="Helvetica" font-size="11px" text-anchor="middle">profip_wdg_trig...</text></switch></g><path d="M 0 380 L 70 380 L 70 395 L 60 410 L 0 410 Z" fill="rgb(255, 255, 255)" stroke="rgb(0, 0, 0)" stroke-miterlimit="10" pointer-events="all"/><path d="M 70 380 L 475 380 L 475 420 L 0 420 L 0 410" fill="none" stroke="rgb(0, 0, 0)" stroke-miterlimit="10" pointer-events="none"/><g transform="translate(-0.5 -0.5)"><switch><foreignObject pointer-events="none" width="100%" height="100%" requiredFeatures="http://www.w3.org/TR/SVG11/feature#Extensibility" style="overflow: visible; text-align: left;"><div xmlns="http://www.w3.org/1999/xhtml" style="display: flex; align-items: unsafe center; justify-content: unsafe center; width: 68px; height: 1px; padding-top: 395px; margin-left: 1px;"><div data-drawio-colors="color: rgb(0, 0, 0); " style="box-sizing: border-box; font-size: 0px; text-align: center;"><div style="display: inline-block; font-size: 12px; font-family: Helvetica; color: rgb(0, 0, 0); line-height: 1.2; pointer-events: none; white-space: normal; overflow-wrap: normal;">every n ms</div></div></div></foreignObject><text x="35" y="399" fill="rgb(0, 0, 0)" font-family="Helvetica" font-size="12px" text-anchor="middle">every n ms</text></switch></g><path d="M 0 430 L 70 430 L 70 445 L 60 460 L 0 460 Z" fill="rgb(255, 255, 255)" stroke="rgb(0, 0, 0)" stroke-miterlimit="10" pointer-events="all"/><path d="M 70 430 L 475 430 L 475 480 L 0 480 L 0 460" fill="none" stroke="rgb(0, 0, 0)" stroke-miterlimit="10" pointer-events="none"/><g transform="translate(-0.5 -0.5)"><switch><foreignObject pointer-events="none" width="100%" height="100%" requiredFeatures="http://www.w3.org/TR/SVG11/feature#Extensibility" style="overflow: visible; text-align: left;"><div xmlns="http://www.w3.org/1999/xhtml" style="display: flex; align-items: unsafe center; justify-content: unsafe center; width: 68px; height: 1px; padding-top: 445px; margin-left: 1px;"><div data-drawio-colors="color: rgb(0, 0, 0); " style="box-sizing: border-box; font-size: 0px; text-align: center;"><div style="display: inline-block; font-size: 12px; font-family: Helvetica; color: rgb(0, 0, 0); line-height: 1.2; pointer-events: none; white-space: normal; overflow-wrap: normal;">every 3 ms</div></div></div></foreignObject><text x="35" y="449" fill="rgb(0, 0, 0)" font-family="Helvetica" font-size="12px" text-anchor="middle">every 3 ms</text></switch></g><rect x="235" y="490" width="101" height="60" rx="9" ry="9" fill="rgb(255, 255, 255)" stroke="rgb(0, 0, 0)" pointer-events="none"/><g transform="translate(-0.5 -0.5)"><switch><foreignObject pointer-events="none" width="100%" height="100%" requiredFeatures="http://www.w3.org/TR/SVG11/feature#Extensibility" style="overflow: visible; text-align: left;"><div xmlns="http://www.w3.org/1999/xhtml" style="display: flex; align-items: unsafe center; justify-content: unsafe center; width: 99px; height: 1px; padding-top: 520px; margin-left: 236px;"><div data-drawio-colors="color: rgb(0, 0, 0); " style="box-sizing: border-box; font-size: 0px; text-align: center;"><div style="display: inline-block; font-size: 12px; font-family: Helvetica; color: rgb(0, 0, 0); line-height: 1.2; pointer-events: none; white-space: normal; overflow-wrap: normal;"><font size="1">if none of the modules have expired, trigger the hardware watchdog</font></div></div></div></foreignObject><text x="286" y="524" fill="rgb(0, 0, 0)" font-family="Helvetica" font-size="12px" text-anchor="middle">if none of the mo...</text></switch></g><path d="M 215 460 L 235 490" fill="none" stroke="rgb(0, 0, 0)" stroke-width="2" stroke-miterlimit="10" pointer-events="none"/></g><switch><g requiredFeatures="http://www.w3.org/TR/SVG11/feature#Extensibility"/><a transform="translate(0,-5)" xlink:href="https://www.drawio.com/doc/faq/svg-export-text-problems" target="_blank"><text text-anchor="middle" font-size="10px" x="50%" y="100%">Text is not SVG - cannot display</text></a></switch></svg>